…
I will make a function that bundles a specific **group_by()** %\>%
**summarize()** workflow.

I want to turn the following workflow into a function: counting how many
unique observations there are for a variable.

``` r
exercise1_example <- vancouver_trees %>%
  group_by(neighbourhood_name) %>%
  summarize(n_species = n_distinct(species_name))
print(exercise1_example)
```

    ## # A tibble: 22 × 2
    ##    neighbourhood_name       n_species
    ##    <chr>                        <int>
    ##  1 ARBUTUS-RIDGE                  121
    ##  2 DOWNTOWN                        79
    ##  3 DUNBAR-SOUTHLANDS              161
    ##  4 FAIRVIEW                       119
    ##  5 GRANDVIEW-WOODLAND             146
    ##  6 HASTINGS-SUNRISE               176
    ##  7 KENSINGTON-CEDAR COTTAGE       159
    ##  8 KERRISDALE                     138
    ##  9 KILLARNEY                      122
    ## 10 KITSILANO                      171
    ## # ℹ 12 more rows
…
# Exercise 3: Examples

## Group by neighbourhood, count unique species

It’s time to show this function in action. Let’s begin by grouping by
neighbourhood and counting unique species.

``` r
group_then_sumz(vancouver_trees, neighbourhood_name, species_name)
```

    ## # A tibble: 22 × 2
    ##    neighbourhood_name       n_distinct
    ##    <chr>                         <int>
    ##  1 HASTINGS-SUNRISE                176
    ##  2 KITSILANO                       171
    ##  3 RENFREW-COLLINGWOOD             170
    ##  4 DUNBAR-SOUTHLANDS               161
    ##  5 KENSINGTON-CEDAR COTTAGE        159
    ##  6 RILEY PARK                      154
    ##  7 SHAUGHNESSY                     150
    ##  8 SUNSET                          147
    ##  9 GRANDVIEW-WOODLAND              146
    ## 10 MARPOLE                         139
    ## # ℹ 12 more rows

Here we have a nice table showing how many distinct tree species there
are in each Vancouver neighbourhood. We find out that Hastings-Sunrise,
Kitsilano, and Renfrew-Collingwood have the most unique tree species.

## Group by genus, count unique species

For the next example, let’s group by genus and count how many distinct
tree species there are in Vancouver that belong to each genus.

``` r
group_then_sumz(vancouver_trees, genus_name, species_name)
```

    ## # A tibble: 97 × 2
    ##    genus_name n_distinct
    ##    <chr>           <int>
    ##  1 ACER               31
    ##  2 PRUNUS             25
    ##  3 MAGNOLIA           20
    ##  4 QUERCUS            18
    ##  5 MALUS              14
    ##  6 PINUS              14
    ##  7 FRAXINUS           11
    ##  8 CORNUS             10
    ##  9 CRATAEGUS          10
    ## 10 PICEA              10
    ## # ℹ 87 more rows

Now we have a nice table showing how many distinct tree species there
are in Vancouver in each genus. The genera with the most unique species
found in Vancouver are *Acer*, *Prunus*, and *Magnolia*.

## Group by genera, count unique cultivars

For this example, we will group by genus again and count how many
cultivars there are in Vancouver in each genus.

``` r
group_then_sumz(vancouver_trees, genus_name, cultivar_name)
```

    ## # A tibble: 48 × 2
    ##    genus_name n_distinct
    ##    <chr>           <int>
    ##  1 ACER               64
    ##  2 PRUNUS             31
    ##  3 MAGNOLIA           29
    ##  4 FRAXINUS           22
    ##  5 MALUS              20
    ##  6 FAGUS              16
    ##  7 CORNUS             12
    ##  8 QUERCUS            11
    ##  9 GLEDITSIA           8
    ## 10 SORBUS              7
    ## # ℹ 38 more rows
…
# Vector with NA's
expect_no_error(group_then_sumz(vancouver_trees, genus_name, cultivar_name), message = NULL, class = NULL)

# Vector of different type (date)
expect_no_error(group_then_sumz(vancouver_trees, neighbourhood_name, date_planted), message = NULL, class = NULL)

# Vector of different type (numeric)
expect_no_error(group_then_sumz(vancouver_trees, neighbourhood_name, on_street_block), message = NULL, class = NULL)

})
```

    ## # A tibble: 22 × 2
    ##    neighbourhood_name       n_distinct
    ##    <chr>                         <int>
    ##  1 HASTINGS-SUNRISE                176
    ##  2 KITSILANO                       171
    ##  3 RENFREW-COLLINGWOOD             170
    ##  4 DUNBAR-SOUTHLANDS               161
    ##  5 KENSINGTON-CEDAR COTTAGE        159
    ##  6 RILEY PARK                      154
    ##  7 SHAUGHNESSY                     150
    ##  8 SUNSET                          147
    ##  9 GRANDVIEW-WOODLAND              146
    ## 10 MARPOLE                         139
    ## # ℹ 12 more rows
    ## # A tibble: 48 × 2
    ##    genus_name n_distinct
    ##    <chr>           <int>
    ##  1 ACER               64
    ##  2 PRUNUS             31
    ##  3 MAGNOLIA           29
    ##  4 FRAXINUS           22
    ##  5 MALUS              20
    ##  6 FAGUS              16
    ##  7 CORNUS             12
    ##  8 QUERCUS            11
    ##  9 GLEDITSIA           8
    ## 10 SORBUS              7
    ## # ℹ 38 more rows
    ## # A tibble: 22 × 2
    ##    neighbourhood_name       n_distinct
    ##    <chr>                         <int>
    ##  1 RENFREW-COLLINGWOOD            1284
    ##  2 KENSINGTON-CEDAR COTTAGE       1236
    ##  3 HASTINGS-SUNRISE               1122
    ##  4 SUNSET                         1031
    ##  5 DUNBAR-SOUTHLANDS               963
    ##  6 VICTORIA-FRASERVIEW             918
    ##  7 RILEY PARK                      838
    ##  8 MARPOLE                         772
    ##  9 KERRISDALE                      755
    ## 10 GRANDVIEW-WOODLAND              754
    ## # ℹ 12 more rows
    ## # A tibble: 22 × 2
    ##    neighbourhood_name       n_distinct
    ##    <chr>                         <int>
    ##  1 SHAUGHNESSY                      81
    ##  2 KERRISDALE                       78
    ##  3 SUNSET                           77
    ##  4 KENSINGTON-CEDAR COTTAGE         74
    ##  5 RENFREW-COLLINGWOOD              72
    ##  6 DUNBAR-SOUTHLANDS                70
    ##  7 HASTINGS-SUNRISE                 70
    ##  8 VICTORIA-FRASERVIEW              65
    ##  9 RILEY PARK                       61
    ## 10 ARBUTUS-RIDGE                    60
    ## # ℹ 12 more rows
    ## Test passed 😀
…
